58	63
85	39
68	66
9	95
47	74
18	41
0	7
44	74
82	74
74	9
85	82
59	52
92	61
68	42
81	73
92	51
74	56
31	32
15	78
37	42
57	48
79	83
58	03
84	86
82	42
68	69
59	79
27	68
84	97
11	42
35	60
9	79
33	32
36	28
28	27
15	78
19	49
37	65
60	26
11	50
38	42
82	79
30	42
56	80
44	79
40	39
74	79
43	66
15	87
68	6
71	70